{
  "project_info": {
    "project_number": "648251846987",
    "firebase_url": "https://chatapp-970b7.firebaseio.com",
    "project_id": "chatapp-970b7",
    "storage_bucket": "chatapp-970b7.appspot.com"
  },
  "client": [
    {
      "client_info": {
        "mobilesdk_app_id": "1:648251846987:android:0c58c2ef28b510de6a78ce",
        "android_client_info": {
          "package_name": "com.example.chatapp"
        }
      },
      "oauth_client": [
        {
          "client_id": "648251846987-c6sta368djj7jkj4fdjpl37nev2gofvu.apps.googleusercontent.com",
          "client_type": 3
        }
      ],
      "api_key": [
        {
          "current_key": "AIzaSyBkwGxItLqEjCa5A67K9Ip8BZWYS0VMPyE"
        }
      ],
      "services": {
        "appinvite_service": {
          "other_platform_oauth_client": [
            {
              "client_id": "648251846987-c6sta368djj7jkj4fdjpl37nev2gofvu.apps.googleusercontent.com",
              "client_type": 3
            }
          ]
        }
      }
    }
  ],
  "configuration_version": "1"
}